^C:\USERS\CAMER\SOURCE\REPOS\SUS\X64\RELEASE\RESOURCE.RES|C:\USERS\CAMER\SOURCE\REPOS\SUS\X64\RELEASE\SOURCE.OBJ
C:\USERS\CAMER\SOURCE\REPOS\SUS\X64\RELEASE\SUS.EXE
C:\USERS\CAMER\SOURCE\REPOS\SUS\X64\RELEASE\SUS.PDB
