^C:\USERS\CAMER\SOURCE\REPOS\SUS\SOURCE.CPP
C:\USERS\CAMER\SOURCE\REPOS\SUS\X64\DEBUG\VC143.PDB
C:\USERS\CAMER\SOURCE\REPOS\SUS\X64\DEBUG\VC143.IDB
C:\USERS\CAMER\SOURCE\REPOS\SUS\X64\DEBUG\SOURCE.OBJ
